{
  "files": {
    "main.css": "/static/css/main.35f7524e.chunk.css",
    "main.js": "/static/js/main.26eb8f7a.chunk.js",
    "main.js.map": "/static/js/main.26eb8f7a.chunk.js.map",
    "runtime-main.js": "/static/js/runtime-main.d01d61ca.js",
    "runtime-main.js.map": "/static/js/runtime-main.d01d61ca.js.map",
    "static/js/2.abb6c99e.chunk.js": "/static/js/2.abb6c99e.chunk.js",
    "static/js/2.abb6c99e.chunk.js.map": "/static/js/2.abb6c99e.chunk.js.map",
    "index.html": "/index.html",
    "precache-manifest.2d4fd0658317850864dde83a88ef49f9.js": "/precache-manifest.2d4fd0658317850864dde83a88ef49f9.js",
    "service-worker.js": "/service-worker.js",
    "static/css/main.35f7524e.chunk.css.map": "/static/css/main.35f7524e.chunk.css.map"
  },
  "entrypoints": [
    "static/js/runtime-main.d01d61ca.js",
    "static/js/2.abb6c99e.chunk.js",
    "static/css/main.35f7524e.chunk.css",
    "static/js/main.26eb8f7a.chunk.js"
  ]
}